%YAML 1.1
%TAG !u! tag:unity3d.com,2011:
--- !u!114 &11400000
MonoBehaviour:
  m_ObjectHideFlags: 0
  m_CorrespondingSourceObject: {fileID: 0}
  m_PrefabInstance: {fileID: 0}
  m_PrefabAsset: {fileID: 0}
  m_GameObject: {fileID: 0}
  m_Enabled: 1
  m_EditorHideFlags: 0
  m_Script: {fileID: 11500000, guid: 1aaa9a0ff0d4cb44fb8bc9caed3161a4, type: 3}
  m_Name: Blackboard
  m_EditorClassIdentifier: 
  category: 
  facts:
  - {fileID: 11400000, guid: 198a855333e5eba4bb7922137e1a2eb5, type: 2}
  - {fileID: 11400000, guid: b6823962ade75bb4bb5f8517cd9b037d, type: 2}
  - {fileID: 11400000, guid: 48f73e8bd5253b14c8d138634672844a, type: 2}
